/Users/svisinigiri/repos/status-service/src/main/java/com/dealersocket/inventory/status/StatusApplication.java
/Users/svisinigiri/repos/status-service/src/main/java/com/dealersocket/inventory/status/service/StatusService.java
/Users/svisinigiri/repos/status-service/src/main/java/com/dealersocket/inventory/status/filter/AuthFilter.java
/Users/svisinigiri/repos/status-service/src/main/java/com/dealersocket/inventory/status/model/Status.java
/Users/svisinigiri/repos/status-service/src/main/java/com/dealersocket/inventory/status/resource/StatusResource.java
/Users/svisinigiri/repos/status-service/src/main/java/com/dealersocket/inventory/status/Constants.java
/Users/svisinigiri/repos/status-service/src/main/java/com/dealersocket/inventory/status/filter/Authenticate.java
/Users/svisinigiri/repos/status-service/src/main/java/com/dealersocket/inventory/status/service/StatusServiceImpl.java
/Users/svisinigiri/repos/status-service/src/main/java/com/dealersocket/inventory/status/repository/StatusDao.java
/Users/svisinigiri/repos/status-service/src/main/java/com/dealersocket/inventory/status/repository/StatusRepository.java
